{
    "Popular Brands": [], 
    "Maruti": [
        "Select Model", 
        "Alto 800", 
        "Baleno", 
        "Celerio", 
        "Celerio X", 
        "Ciaz", 
        "Dzire", 
        "Eeco", 
        "Ertiga", 
        "Ignis", 
        "S-Cross", 
        "S-Presso", 
        "Swift", 
        "Vitara Brezza", 
        "Wagon R", 
        "XL6", 
        "Futuro-e", 
        "Grand Vitara", 
        "Jimny", 
        "Solio", 
        "Swift 2020", 
        "Swift Hybrid", 
        "WagonR Electric", 
        "XL5"
    ], 
    "Hyundai": [
        "Select Model", 
        "Aura", 
        "Creta", 
        "Elantra", 
        "Elite i20", 
        "Grand i10", 
        "Grand i10 Nios", 
        "Kona Electric", 
        "Santro", 
        "Tucson", 
        "Venue", 
        "Verna", 
        "Xcent",  
        "Elantra 2021", 
        "Elite i20 2020", 
        "Ioniq", 
        "Nexo", 
        "Palisade", 
        "Santa Fe 2022", 
        "Sonata" 
    ], 
    "Honda": [
        "Select Model", 
        "Amaze", 
        "CR-V", 
        "City", 
        "City 4th Generation", 
        "Civic", 
        "Jazz", 
        "WR-V",  
        "Brio 2020", 
        "HR-V", 
        "Jazz 2020" 
    ], 
    "Tata": [
        "Select Model", 
        "Altroz", 
        "Harrier", 
        "Nexon", 
        "Nexon EV", 
        "Tiago", 
        "Tigor", 
        "Tigor EV", 
        "Yodha Pickup",  
        "Altroz EV", 
        "Gravitas", 
        "HBX", 
        "Hexa", 
        "Sierra", 
        "Tiago EV" 
    ], 
    "Mahindra": [
	"Select Model", 
	"Alturas G4", 
	"Bolero", 
	"Bolero Pik-Up", 
	"Bolero Power Plus", 
	"E Verito", 
	"KUV100 NXT", 
	"Marazzo", 
	"Scorpio", 
	"TUV 300", 
	"TUV 300 Plus", 
	"XUV300", 
	"XUV500", 
	"Thar", 
	"XUV300 Electric", 
	"XUV500 2020", 
	"eKUV100" 
    ], 
    "Renault": [
	"Select Model", 
	"Duster", 
	"KWID", 
	"Triber",  
	"Duster Turbo", 
	"K-ZE", 
	"Kiger (HBC)", 
	"Zoe" 
    ], 
    "Ford": [
	"Select Model", 
	"Aspire", 
	"EcoSport", 
	"Endeavour", 
	"Figo", 
	"Freestyle",  
	"EcoSport 2020", 
	"Mustang 2021" 
    ], 
    "Nissan": [
	"Select Model", 
	"GT-R", 
	"Kicks", 
	"Leaf", 
	"Magnite", 
	"Note e Power", 
	"Sunny 2020", 
	"Terra", 
	"X-Trail" 
    ], 
    "Datsun": [
	"Select Model", 
	"GO", 
	"GO Plus", 
	"redi-GO" 
    ], 
    "Toyota": [
	"Select Model", 
	"Camry", 
	"Fortuner", 
	"Fortuner 2021", 
	"Glanza", 
	"Innova Crysta", 
	"Prius", 
	"Vellfire", 
	"Yaris",  
	"Corolla 2020", 
	"Corolla Altis", 
	"Urban cruiser", 
	"Yaris 2021" 
    ], 
    "MG": [
	"Select Model", 
	"Hector", 
	"Hector Plus", 
	"ZS EV",  
	"3", 
	"G10", 
	"Gloster", 
	"Marvel X", 
	"RC-6", 
	"RX5" 
    ], 
    "Kia": [
	"Select Model", 
	"Carnival", 
	"Seltos", 
	"Carnival 2021", 
	"Picanto", 
	"Rio", 
	"Sonet", 
	"Sportage", 
	"Stinger", 
	"Xceed" 
    ], 
    "Aston Martin": [
	"Select Model", 
	"DB11", 
	"DBS Superleggera", 
	"DBX" 
    ], 
    "Audi": [
	"Select Model", 
	"A6", 
	"A8", 
	"Q5", 
	"RS7", 
	"A3 2021", 
	"Q2", 
	"Q3 2020", 
	"Q5 2021", 
	"Q7 2020", 
	"RS Q8", 
	"TT 2021", 
	"e-tron" 
    ], 
    "Bentley": [
	"Select Model", 
	"Bentayga", 
	"Continental", 
	"Flying Spur", 
	"Bentayga 2021" 
    ], 
    "BMW": [
	"Select Model", 
	"3 Series", 
	"3 Series GT", 
	"5 Series", 
	"6 Series", 
	"7 Series", 
	"M Series", 
	"M2", 
	"X1", 
	"X3", 
	"X4", 
	"X5", 
	"X6", 
	"X7", 
	"Z4",  
	"2 Series", 
	"5 Series 2021", 
	"i3" 
    ], 
    "Bugatti": [
        "Select Model",
        "Chiron"
    ], 
    "Citroen":  [
        "Select Model",
        "C5 Aircross"
    ],  
    "DC": [
        "Select Model",
        "TCA"
    ], 
    "Ferrari": [
	"Select Model", 
	"812", 
	"F8 Tributo", 
	"GTC4Lusso", 
	"Portofino", 
	"Roma", 
	"SF90 Stradale" 
    ], 
    "Fiat": [
        "Select Model",
        "Cronos"
    ], 
    "Force": [
	"Select Model", 
	"Gurkha",  
	"Gurkha 2020" 
    ], 
    "Haima": [ 
        "8S", 
        "Bird Electric EV1"
    ], 
    "Haval": [
        "Concept H", 
        "F5", 
        "F7", 
        "H2", 
        "H6", 
        "H9", 
        "Vision 2025"
    ], 
    "Isuzu": [
        "Select Model", 
        "D-Max V-Cross", 
        "ISUZU MUX", 
        "D-Max 2021"
    ], 
    "Jaguar": [
        "Select Model", 
        "F-PACE", 
        "F-TYPE", 
        "XE", 
        "XF", 
        "E Pace", 
        "I-Pace"
    ], 
    "Jeep": [
        "Select Model", 
        "Compass", 
        "Compass Trailhawk", 
        "Grand Cherokee", 
        "Wrangler", 
        "Upcoming Model", 
        "7-Seater SUV", 
        "Compass 2021"
    ], 
    "Lamborghini": [
        "Select Model", 
        "Aventador", 
        "Huracan EVO", 
        "Urus"
    ], 
    "Land Rover": [
        "Select Model", 
        "Defender", 
        "Discovery", 
        "Discovery Sport", 
        "Range Rover", 
        "Range Rover Evoque", 
        "Range Rover Sport", 
        "Range Rover Velar" 
    ], 
    "Lexus": [
        "Select Model", 
        "ES", 
        "LC 500h", 
        "LS", 
        "LX", 
        "NX", 
        "RX"
    ], 
    "Maserati": [
        "Select Model", 
        "Ghibli", 
        "GranCabrio", 
        "GranTurismo", 
        "Levante", 
        "Quattroporte" 
    ], 
    "Mercedes-Benz": [
        "Select Model", 
        "AMG GT", 
        "AMG GT 4-Door Coupe", 
        "C-Class", 
        "CLS", 
        "E-Class", 
        "E-Class All-Terrain", 
        "G", 
        "GLA Class", 
        "GLC", 
        "GLC Coupe", 
        "GLE", 
        "GLS", 
        "S-Class", 
        "V-Class",  
        "A-Class Sedan", 
        "AMG GLE 53 Coupe", 
        "CLA 2020", 
        "E-Class 2020", 
        "EQC", 
        "GLA 2020" 
    ], 
    "Mini": [
        "Select Model", 
        "Cooper", 
        "Cooper 3 DOOR", 
        "Countryman"
    ], 
    "Mitsubishi": [
        "Select Model", 
        "Outlander", 
        "Pajero Sport",
        "Eclipse Cross", 
        "Xpander"
    ], 
    "ORA": [
        "R1", 
        "R2", 
        "iQ"
    ], 
    "Porsche": [
        "Select Model", 
        "718", 
        "911", 
        "Cayenne", 
        "Cayenne Coupe", 
        "Macan", 
        "Panamera", 
        "Taycan"
    ], 
    "Rolls-Royce": [
        "Select Model", 
        "Cullinan", 
        "Rolls Royce Dawn", 
        "Rolls Royce Ghost", 
        "Rolls Royce Phantom", 
        "Rolls Royce Wraith"
    ], 
    "Skoda": [
        "Select Model", 
        "Karoq", 
        "New Rapid", 
        "New Superb", 
        "Octavia",
        "Octavia 2020", 
        "Rapid 2021", 
        "Vision IN", 
        "kodiaq 2020"
    ], 
    "Tesla": [
        "Model 3", 
        "Model S", 
        "Model X"
    ], 
    "Volkswagen": [
        "Select Model", 
        "Polo", 
        "T-Roc", 
        "Tiguan Allspace", 
        "Vento",
        "Passat 2020", 
        "Taigun", 
        "Tiguan 2021", 
        "Vento 2021", 
        "Virtus"
    ], 
    "Volvo": [
        "Select Model", 
        "S90", 
        "V90 Cross Country", 
        "XC40", 
        "XC60", 
        "XC90",  
        "S60 2020", 
        "V60 Cross Country"
    ]
}
