{
    "city": [
        "Popular Cities", 
        "Ahmedabad", 
        "Bangalore", 
        "Central Bangalore", 
        "Bannerghatta Road", 
        "Kormangala /Indiranagar", 
        "Electronic City/Bommanahalli", 
        "Hebbal/Yelahanka", 
        "ITPL Whitefield", 
        "Mysore Road", 
        "Chandigarh", 
        "Chennai", 
        "South Chennai", 
        "North Chennai", 
        "Delhi NCR", 
        "Gurgaon", 
        "Noida", 
        "Faridabad", 
        "Gautam Buddha Nagar", 
        "Ghaziabad", 
        "Greater Noida", 
        "Gurugram", 
        "Modinagar", 
        "Hyderabad", 
        "Jaipur", 
        "Kolkata", 
        "South Kolkata", 
        "North Kolkata", 
        "East Kolkata", 
        "Central Kolkata", 
        "Mumbai", 
        "Mumbai South", 
        "Goregaon to Dahisar", 
        "Bandra to Jogeshwari", 
        "Kurla to Mulund", 
        "Wadala to Chembur", 
        "Kharghar", 
        "Mira Road", 
        "Navi Mumbai", 
        "Thane", 
        "Vasai", 
        "Vashi", 
        "New Delhi", 
        "North Delhi", 
        "East Delhi", 
        "South Delhi", 
        "Central Delhi", 
        "West Delhi", 
        "Pune", 
        "All Cities", 
        "Abohar", 
        "Abu Road", 
        "Adilabad", 
        "Adoni", 
        "Adoor", 
        "Agar Malwa", 
        "Agartala", 
        "Agra", 
        "Ahmednagar", 
        "Aizawl", 
        "Ajmer", 
        "Akbarpur", 
        "Akluj", 
        "Akola", 
        "Alandi", 
        "Alappuzha", 
        "Alibag", 
        "Aligarh", 
        "Alipurduar", 
        "Allahabad", 
        "Almora", 
        "Aluva", 
        "Alwar", 
        "Amalapuram", 
        "Amb", 
        "Ambajogai", 
        "Ambala", 
        "Ambedkar Nagar", 
        "Ambernath", 
        "Ambikapur", 
        "Amethi", 
        "Amravati", 
        "Amreli", 
        "Amritsar", 
        "Amroha", 
        "Anakapalle", 
        "Anakaputhur", 
        "Anand", 
        "Anantapur", 
        "Anantnag", 
        "Andaman and Nicobar", 
        "Andhra Pradesh", 
        "Angamaly", 
        "Angul", 
        "Ankleshwar", 
        "Anuppur", 
        "Araria", 
        "Arrah", 
        "Arunachal Pradesh", 
        "Asansol", 
        "Ashta", 
        "Assam", 
        "Assandh", 
        "Athani", 
        "Auraiya", 
        "Aurangabad", 
        "Aurangabad(bh)", 
        "Avanigadda", 
        "Ayodhya", 
        "Azamgarh", 
        "Baddi", 
        "Badlapur", 
        "Bagaha", 
        "Bagalkot", 
        "Baghpat", 
        "Bahadurgarh", 
        "Bahraich", 
        "Bailhongal", 
        "Bakshi Ka Talab", 
        "Balaghat", 
        "Balangir", 
        "Balasore", 
        "Balesar", 
        "Ballabhgarh", 
        "Ballia", 
        "Balod", 
        "Balotra", 
        "Balrampur", 
        "Balurghat", 
        "Banaskantha", 
        "Banda", 
        "Bandipora", 
        "Banka", 
        "Bankura", 
        "Banswara", 
        "Barabanki", 
        "Baramati", 
        "Baran", 
        "Barasat", 
        "Baraut", 
        "Bardhaman", 
        "Bardoli", 
        "Bareilly", 
        "Bargarh", 
        "Baripada", 
        "Barmer", 
        "Barnala", 
        "Barpeta", 
        "Barshi", 
        "Barwani", 
        "Basirhat", 
        "Bassi", 
        "Basti", 
        "Batala", 
        "Bathinda", 
        "Beawar", 
        "Beed", 
        "Begusarai", 
        "Behror", 
        "Belgaum", 
        "Bellary", 
        "Bemetara", 
        "Benares", 
        "Bengaluru", 
        "Central Bangalore", 
        "Bannerghatta Road", 
        "Kormangala /Indiranagar", 
        "Electronic City/Bommanahalli", 
        "Hebbal/Yelahanka", 
        "ITPL Whitefield", 
        "Mysore Road", 
        "Berhampur", 
        "Bettiah", 
        "Betul", 
        "Bhabua", 
        "Bhachau", 
        "Bhadohi", 
        "Bhadrachalam", 
        "Bhadrak", 
        "Bhagalpur", 
        "Bhandara", 
        "Bharatpur", 
        "Bharuch", 
        "Bhavnagar", 
        "Bhawanipatna", 
        "Bhilai", 
        "Bhilwara", 
        "Bhimavaram", 
        "Bhind", 
        "Bhiwadi", 
        "Bhiwandi", 
        "Bhiwani", 
        "Bhopal", 
        "Bhubaneswar", 
        "Bhuj", 
        "Bhusawal", 
        "Bidar", 
        "Bihar", 
        "Bihar Sharif", 
        "Bihta", 
        "Bijapur", 
        "Bijnor", 
        "Bikaner", 
        "Bilaspur", 
        "Bilaspur(HP)", 
        "Bodh gaya", 
        "Boisar", 
        "Bokakhat", 
        "Bokaro", 
        "Bolpur", 
        "Bongaigaon", 
        "Botad", 
        "Brahmapuri", 
        "Budaun", 
        "Bulandshahr", 
        "Buldhana", 
        "Bundi", 
        "Burhanpur", 
        "Buxar", 
        "Calicut", 
        "Cannanore (Kannur)", 
        "Chakdaha", 
        "Chakradharpur", 
        "Chalisgaon", 
        "Chamoli", 
        "Chandauli", 
        "Chandausi", 
        "Chandigarh Mohali", 
        "Chandrapur", 
        "Changanassery", 
        "Changaramkulam", 
        "Charkhi dadri", 
        "Chattarpur", 
        "Cheeka", 
        "Chengalpattu", 
        "Chhatrapur", 
        "Chhattisgarh", 
        "Chhindwara", 
        "Chikhli", 
        "Chikmagalur", 
        "Chikodi", 
        "Chiplun", 
        "Chirawa", 
        "Chitradurga", 
        "Chitrakoot", 
        "Chittoor", 
        "Chittorgarh", 
        "Chomu", 
        "Churu", 
        "Cochin", 
        "Coimbatore", 
        "Contai", 
        "Cooch Behar", 
        "Cuddalore", 
        "Cuttack", 
        "Dabra", 
        "Dadra and Nagar Haveli", 
        "Dahod", 
        "Dalkhola", 
        "Daman", 
        "Daman and Diu", 
        "Damoh", 
        "Dankuni", 
        "Darbhanga", 
        "Dasuya", 
        "Datia", 
        "Daund", 
        "Dausa", 
        "Davangere", 
        "Deesa", 
        "Dehradun", 
        "Dehri on sone", 
        "Deoband", 
        "Deoghar", 
        "Deoria", 
        "Dera Bassi", 
        "Dewas", 
        "Dhamtari", 
        "Dhanbad", 
        "Dhar", 
        "Dharampur", 
        "Dharamshala", 
        "Dharmapuri", 
        "Dharmavaram", 
        "Dharwad", 
        "Dhemaji", 
        "Dhenkanal", 
        "Dholpur", 
        "Dhubri", 
        "Dhule", 
        "Dhuri", 
        "Dibrugarh", 
        "Didwana", 
        "Dimapur", 
        "Dindigul", 
        "Diphu", 
        "Doraha", 
        "Duliajan", 
        "Dumka", 
        "Dungarpur", 
        "Durg", 
        "Durgapur", 
        "East Sikkim", 
        "Edapal", 
        "Ellenabad", 
        "Eluru", 
        "Ernakulam", 
        "Erode", 
        "Etah", 
        "Etawah", 
        "Faizabad", 
        "Faridkot", 
        "Farrukhabad", 
        "Fatehabad", 
        "Fatehgarh Sahib", 
        "Fatehpur", 
        "Fazilka", 
        "Firozabad", 
        "Firozpur", 
        "Gadag", 
        "Gadarwara", 
        "Gadhinglaj", 
        "Gajraula", 
        "Gajuwaka", 
        "Ganaur", 
        "Gandhidham", 
        "Gandhinagar", 
        "Gangapur Rs", 
        "Gangavati", 
        "Gangtok", 
        "Ganj Basoda", 
        "Ganjam", 
        "Garhwa", 
        "Gaya", 
        "Gharaunda", 
        "Ghazipur", 
        "Giridih", 
        "Goa", 
        "Goalpara", 
        "Gobichettipalayam", 
        "Godhra", 
        "Gohana", 
        "Gokak", 
        "Golaghat", 
        "Gonda", 
        "Gondal", 
        "Gondia", 
        "Gopalganj", 
        "Gorakhpur", 
        "Gujarat", 
        "Gulbarga", 
        "Gumla", 
        "Guna", 
        "Guntur", 
        "Gurdaspur", 
        "Guwahati", 
        "Gwalior", 
        "Hailakandi", 
        "Hajipur", 
        "Haldwani", 
        "Hamirpur(UP)", 
        "Hamirpur(hp)", 
        "Hansi", 
        "Hanumangarh", 
        "Hapur", 
        "Harda", 
        "Hardoi", 
        "Haridwar", 
        "Haryana", 
        "Hassan", 
        "Hathras", 
        "Haveri", 
        "Hazaribagh", 
        "Himachal Pradesh", 
        "Himatnagar", 
        "Hindaun", 
        "Hingoli", 
        "Hisar", 
        "Hodal", 
        "Hooghly", 
        "Hoshangabad", 
        "Hoshiarpur", 
        "Hospet", 
        "Hosur", 
        "Howrah", 
        "Hubli", 
        "Ichalkaranji", 
        "Idukki", 
        "Imphal", 
        "Indore", 
        "Islampur (WB)", 
        "Itanagar", 
        "Itarsi", 
        "Jabalpur", 
        "Jagadhri", 
        "Jagatsinghpur", 
        "Jagdalpur", 
        "Jagdishpur", 
        "Jagraon", 
        "Jagtial", 
        "Jaisalmer", 
        "Jaitu", 
        "Jajpur", 
        "Jalalabad", 
        "Jalandhar", 
        "Jalaun", 
        "Jalgaon", 
        "Jalna", 
        "Jalore", 
        "Jalpaiguri", 
        "Jam Jodhpur", 
        "Jamakhandi", 
        "Jammu", 
        "Jammu and Kashmir", 
        "Jamnagar", 
        "Jamshedpur", 
        "Jamui", 
        "Jangaon", 
        "Janjgir-Champa", 
        "Jaunpur", 
        "Jaysingpur", 
        "Jehanabad", 
        "Jetpur", 
        "Jeypore", 
        "Jhabua", 
        "Jhajjar", 
        "Jhalawar", 
        "Jhansi", 
        "Jharkhand", 
        "Jharsuguda", 
        "Jhunjhunu", 
        "Jind", 
        "Jodhpur", 
        "Jorhat", 
        "Junagadh", 
        "Jyotiba Phule Nagar", 
        "Kabirdham", 
        "Kachchh", 
        "Kadapa", 
        "Kadi", 
        "Kaithal", 
        "Kakinada", 
        "Kalahandi", 
        "Kalka", 
        "Kalol", 
        "Kalpetta", 
        "Kalyan", 
        "Kalyani", 
        "Kamareddy", 
        "Kanchipuram", 
        "Kangra", 
        "Kanhangad", 
        "Kanker", 
        "Kannauj", 
        "Kannur", 
        "Kanpur", 
        "Kanpur Dehat", 
        "Kapadvanj", 
        "Kapurthala", 
        "Karad", 
        "Karaikal", 
        "Karaikudi", 
        "Karbi Anglong", 
        "Kargil", 
        "Karimganj", 
        "Karimnagar", 
        "Karkala", 
        "Karnal", 
        "Karnataka", 
        "Karunagappally", 
        "Karur", 
        "Karwar", 
        "Kasaragod", 
        "Kasganj", 
        "Kashipur", 
        "Kathua", 
        "Katihar", 
        "Katni", 
        "Kattappana", 
        "Kaushambi", 
        "Kavali", 
        "Kawardha", 
        "Kayamkulam", 
        "Kendujhar", 
        "Kerala", 
        "Khagaria", 
        "Khair", 
        "Khalilabad", 
        "Khambhalia", 
        "Khammam", 
        "Khandwa", 
        "Khanna", 
        "Kharagpur", 
        "Kharar", 
        "Khargone", 
        "Khatima", 
        "Kheda", 
        "Khordha", 
        "Khurja", 
        "Kinnaur", 
        "Kishangarh", 
        "Kochi", 
        "Koderma", 
        "Kolar", 
        "Kolhapur", 
        "Kollam", 
        "Kondagaon", 
        "Koraput", 
        "Korba", 
        "Kota", 
        "Kotdwara", 
        "Kothagudem", 
        "Kotputli", 
        "Kottakkal", 
        "Kottayam", 
        "Kovilpatti", 
        "Koyilandy", 
        "Kozhikode", 
        "Krishnagiri", 
        "Kuchaman City", 
        "Kudal", 
        "Kullu", 
        "Kundapur", 
        "Kundli", 
        "Kunnamkulam", 
        "Kurnool", 
        "Kurukshetra", 
        "Kushalanagar", 
        "Kushinagar", 
        "Ladakh", 
        "Lakhimpur Kheri", 
        "Lakhimpur(Assam)", 
        "Lakhisarai", 
        "Lalganj", 
        "Lalitpur", 
        "Latur", 
        "Lucknow", 
        "Ludhiana", 
        "Lunglei", 
        "Machilipatnam", 
        "Madanapalle", 
        "Madhepura", 
        "Madhubani", 
        "Madhya Pradesh", 
        "Madurai", 
        "Mahabubabad", 
        "Maharajganj", 
        "Maharashtra", 
        "Mahasamund", 
        "Mahbubnagar", 
        "Mahe", 
        "Mahendragarh", 
        "Mahilpur", 
        "Mahoba", 
        "Mahuva", 
        "Mainpuri", 
        "Malappuram", 
        "Maldah", 
        "Malegaon", 
        "Malout", 
        "Mandapeta", 
        "Mandgaon", 
        "Mandi", 
        "Mandi dabwali", 
        "Mandla", 
        "Mandsaur", 
        "Mandvi (Kachchh)", 
        "Mandya", 
        "Manesar", 
        "Mangaldai", 
        "Mangalore", 
        "Manipur", 
        "Manjeri", 
        "Mansa", 
        "Mansa (GJ)", 
        "Margao", 
        "Mathura", 
        "Mau", 
        "Mavelikara", 
        "Mayabunder", 
        "Meerut", 
        "Meghalaya", 
        "Mehsana", 
        "Merta city", 
        "Mewat", 
        "Mhow", 
        "Midnapore", 
        "Miraj", 
        "Miryalaguda", 
        "Mirzapur", 
        "Mizoram", 
        "Modasa", 
        "Moga", 
        "Mohali", 
        "Mohania", 
        "Moradabad", 
        "Morbi", 
        "Morena", 
        "Morigaon", 
        "Motihari", 
        "Mount Abu", 
        "Mukerian", 
        "Mundra", 
        "Munger", 
        "Murshidabad", 
        "Musabani", 
        "Muzaffarnagar", 
        "Muzaffarpur", 
        "Mysore", 
        "Nabadwip", 
        "Nabha", 
        "Nadiad", 
        "Nagaland", 
        "Nagaon", 
        "Nagaur", 
        "Nagercoil", 
        "Nagpur", 
        "Nahan", 
        "Naharlagun", 
        "Naihati", 
        "Nainital", 
        "Nakodar", 
        "Nalagarh", 
        "Nalbari", 
        "Nalgonda", 
        "Namakkal", 
        "Nanded", 
        "Nandurbar", 
        "Nandyal", 
        "Nangal", 
        "Naraingarh", 
        "Narasaraopet", 
        "Narnaul", 
        "Narsinghpur", 
        "Narsipatnam", 
        "Narwana", 
        "Nashik", 
        "Nathdwara", 
        "Naugarh", 
        "Navsari", 
        "Nawabganj", 
        "Nawada", 
        "Nawanshahr", 
        "Neemrana", 
        "Neemuch", 
        "Nellore", 
        "Neyveli", 
        "Neyyattinkara", 
        "Nilambur", 
        "Nirmal", 
        "Nizamabad", 
        "Nohar", 
        "Nokha", 
        "North 24 Parganas", 
        "North Tripura", 
        "North lakhimpur", 
        "Nuh", 
        "Odisha", 
        "Ongole", 
        "Ooty", 
        "Orai", 
        "Osmanabad", 
        "Padrauna", 
        "Palakkad", 
        "Palamaner", 
        "Palampur", 
        "Palani", 
        "Palanpur", 
        "Palghar", 
        "Pali", 
        "Palwal", 
        "Panaji", 
        "Panchkula", 
        "Pandharpur", 
        "Panipat", 
        "Panna", 
        "Panvel", 
        "Paonta sahib", 
        "Paralakhemundi", 
        "Paramakudi", 
        "Parbhani", 
        "Patamda", 
        "Patan", 
        "Pathanamthitta", 
        "Pathankot", 
        "Patiala", 
        "Patna", 
        "Patran", 
        "Pattambi", 
        "Patti", 
        "Payyanur", 
        "Pehowa", 
        "Pen", 
        "Perambalur", 
        "Perinthalmanna", 
        "Perumbavoor", 
        "Phagwara", 
        "Phalodi", 
        "Phaltan", 
        "Phillaur", 
        "Pilibhit", 
        "Pimpri chinchwad", 
        "Pithoragarh", 
        "Pollachi", 
        "Pondicherry", 
        "Poonamallee", 
        "Poonch", 
        "Porbandar", 
        "Port Blair", 
        "Pratapgarh", 
        "Prayagraj", 
        "Proddatur", 
        "Pudukkottai", 
        "Punjab", 
        "Purba Medinipur", 
        "Puri", 
        "Purnia", 
        "Purulia", 
        "Puttur", 
        "Radaur", 
        "Raebareli", 
        "Raichur", 
        "Raigad", 
        "Raigarh", 
        "Raikot", 
        "Raipur", 
        "Raisen", 
        "Rajahmundry", 
        "Rajapur", 
        "Rajasthan", 
        "Rajgarh", 
        "Rajkot", 
        "Rajnandgaon", 
        "Rajpipla", 
        "Rajpura", 
        "Rajsamand", 
        "Ramagundam", 
        "Ramanathapuram", 
        "Ramdurg", 
        "Ramgarh", 
        "Ramnagar", 
        "Rampur", 
        "Rampur Bushahr", 
        "Rampura Phul", 
        "Rampurhat", 
        "Ranaghat", 
        "Ranchi", 
        "Ranikhet", 
        "Rasra", 
        "Ratangarh", 
        "Ratlam", 
        "Ratnagiri", 
        "Rawatsar", 
        "Rayagada", 
        "Renukoot", 
        "Rewa", 
        "Rewari", 
        "Rishikesh", 
        "Robertsganj", 
        "Rohtak", 
        "Rohtas", 
        "Roorkee", 
        "Rourkela", 
        "Rudraprayag", 
        "Rudrapur", 
        "Rupnagar", 
        "Sadabad", 
        "Safidon", 
        "Sagar", 
        "Sagwara", 
        "Saharanpur (UP)", 
        "Saharsa", 
        "Sahibabad", 
        "Salem", 
        "Samalkha", 
        "Samastipur", 
        "Samba", 
        "Sambalpur", 
        "Sambhal", 
        "Samrala", 
        "Sanchore", 
        "Sandila", 
        "Sangamner", 
        "Sangareddi", 
        "Sangli", 
        "Sangrur", 
        "Sant Kabir Nagar", 
        "Santrampur", 
        "Saran", 
        "Sasaram", 
        "Satara", 
        "Satna", 
        "Sattenapalli", 
        "Sawai madhopur", 
        "Sawantwadi", 
        "Secunderabad", 
        "Sehore", 
        "Seoni", 
        "Seraikela-kharsawan", 
        "Shahabad", 
        "Shahbad", 
        "Shahdol", 
        "Shahjahanpur", 
        "Shajapur", 
        "Shamli", 
        "Sheopur", 
        "Shergarh (RJ)", 
        "Shikohabad", 
        "Shillong", 
        "Shimla", 
        "Shimoga", 
        "Shirdi", 
        "Shivpuri", 
        "Shrirampur", 
        "Shujalpur", 
        "Siddharthnagar", 
        "Siddipet", 
        "Sidhi", 
        "Sikar", 
        "Sikkim", 
        "Silchar", 
        "Siliguri", 
        "Sillod", 
        "Silvassa", 
        "Sindhudurg", 
        "Singrauli", 
        "Sirmaur", 
        "Sirohi", 
        "Sirsa", 
        "Sirsi", 
        "Sitamarhi", 
        "Sitapur", 
        "Sitarganj", 
        "Sivaganga", 
        "Sivakasi", 
        "Sivasagar", 
        "Siwan", 
        "Solan", 
        "Solapur", 
        "Sonbhadra", 
        "Sonipat", 
        "Sonitpur", 
        "Sri Ganganagar", 
        "Sri Muktsar Sahib", 
        "Srikakulam", 
        "Srinagar", 
        "Srinagar (UK)", 
        "Sukma", 
        "Sullia", 
        "Sultanpur", 
        "Sultanpur Lodhi", 
        "Sumerpur", 
        "Sundergarh", 
        "Surat", 
        "Suratgarh", 
        "Surendranagar", 
        "Suri", 
        "Suryapet", 
        "Tadepalligudem", 
        "Taliparamba", 
        "Tamil Nadu", 
        "Tamluk", 
        "Tanuku", 
        "Tapi", 
        "Tarn Taran", 
        "Telangana", 
        "Tenali", 
        "Tenkasi", 
        "Tezpur", 
        "Thalassery", 
        "Thanjavur", 
        "Theni", 
        "Thiruvananthapuram", 
        "Thiruvarur", 
        "Thoothukudi", 
        "Thrissur", 
        "Tikamgarh", 
        "Tindivanam", 
        "Tinsukia", 
        "Tiptur", 
        "Tiruchirappalli", 
        "Tirukoilur", 
        "Tirunelveli", 
        "Tirupati", 
        "Tiruppur", 
        "Tiruvannamalai", 
        "Tripura", 
        "Trivandrum", 
        "Tumkur", 
        "Tura", 
        "Tuticorin", 
        "Udagamandalam", 
        "Udaipur", 
        "Udalguri", 
        "Udham Singh Nagar", 
        "Udhampur", 
        "Udumalaipettai", 
        "Udupi", 
        "Ujjain", 
        "Ulhasnagar", 
        "Umaria", 
        "Umbergaon", 
        "Una", 
        "Una (Gj)", 
        "Unnao", 
        "Uppala", 
        "Urun Islampur", 
        "Uttar Dinajpur", 
        "Uttar Pradesh", 
        "Uttara Kannada", 
        "Uttarakhand", 
        "Vadakara", 
        "Vadodara", 
        "Valsad", 
        "Vapi", 
        "Varanasi", 
        "Vasco Da Gama", 
        "Vellore", 
        "Veraval", 
        "Verna", 
        "Vidisha", 
        "Vijapur", 
        "Vijayawada", 
        "Vikasnagar", 
        "Viluppuram", 
        "Virudhunagar", 
        "Visakhapatnam", 
        "Visnagar", 
        "Vizag", 
        "Vizianagaram", 
        "Wadakkanchery", 
        "Wanaparthy", 
        "Warangal", 
        "Wardha", 
        "Washim", 
        "Wayanad", 
        "West Bengal", 
        "Yamuna Nagar", 
        "Yavatmal", 
        "Zira", 
        "Zirakpur"
    ]
}
